{
    "customizations": {
        "vscode": {
            "extensions": [
                "beardedbear.beardedtheme",
                "cweijan.vscode-office",
                "davidanson.vscode-markdownlint",
                "eamodio.gitlens",
                "editorconfig.editorconfig",
                "github.copilot-chat",
                "github.copilot-labs",
                "gitlab.gitlab-workflow",
                "leodevbro.blockman",
                "ms-azuretools.vscode-docker",
                "redhat.vscode-yaml",
                "shd101wyy.markdown-preview-enhanced",
                "tamasfe.even-better-toml",
                "vscode-icons-team.vscode-icons",
                "yzhang.markdown-all-in-one"
            ],
            "settings": {
                "diffEditor.wordWrap": "off",
                "editor.fontFamily": "CaskaydiaCove Nerd Font",
                "editor.fontLigatures": true,
                "editor.formatOnSave": true,
                "editor.guides.bracketPairs": false,
                "editor.guides.indentation": false,
                "editor.inlayHints.enabled": "off",
                "editor.tabCompletion": "on",
                "editor.wordWrap": "off",
                "files.autoSave": "onFocusChange",
                "git.autofetch": true,
                "git.confirmSync": false,
                "git.enableCommitSigning": true,
                "git.enableSmartCommit": true,
                "gitlens.showWelcomeOnInstall": false,
                "gitlens.showWhatsNewAfterUpgrades": false,
                "redhat.telemetry.enabled": false,
                "vsicons.dontShowNewVersionMessage": true,
                "workbench.colorCustomizations": {
                    "editor.lineHighlightBackground": "#1073cf2d",
                    "editor.lineHighlightBorder": "#9fced11f"
                },
                "workbench.colorTheme": "Bearded Theme Monokai Terra",
                "workbench.iconTheme": "vscode-icons"
            }
        }
    },
    "image": "registry.gitlab.com/xangelix-pub/containers/arch:latest",
    "name": "Arch",
    "remoteUser": "tux"
}
